<svg width="34" height="34" viewBox="0 0 34 34" fill="none" xmlns="http://www.w3.org/2000/svg">
    <path fill-rule="evenodd" clip-rule="evenodd" d="M17 34C26.3888 34 34 26.3888 34 17C34 7.61116 26.3888 0 17 0C7.61116 0 0 7.61116 0 17C0 26.3888 7.61116 34 17 34Z" fill="#77AFBA"/>
    <rect x="5" y="4.86495" width="24" height="23.8457" fill="white" fill-opacity="0.01"/>
    <path fill-rule="evenodd" clip-rule="evenodd" d="M16 22.7492H18V23.7428C18 24.2912 17.552 24.7363 17 24.7363C16.448 24.7363 16 24.2912 16 23.7428V22.7492ZM16 26.7235H18C19.105 26.7235 20 25.8342 20 24.7363V21.7556C20 21.2072 19.552 20.7621 19 20.7621H15C14.448 20.7621 14 21.2072 14 21.7556V24.7363C14 25.8342 14.895 26.7235 16 26.7235V26.7235ZM19.162 16.8086C16.482 16.7808 17.468 16.7808 14.837 16.8086C13.981 15.7257 13 13.5984 13 12.6655C13 10.5561 14.794 8.83923 17 8.83923C19.206 8.83923 21 10.5561 21 12.6655C21 13.5984 20.019 15.7257 19.162 16.8086V16.8086ZM17 6.85209C13.686 6.85209 11 9.45524 11 12.6655C11 14.285 12.42 17.1733 13.652 18.4759C13.849 18.6835 14.119 18.8027 14.406 18.7998C18.112 18.762 19.601 18.8008 19.594 18.7998C19.881 18.8027 20.151 18.6835 20.348 18.4759C21.58 17.1733 23 14.285 23 12.6655C23 9.45524 20.314 6.85209 17 6.85209V6.85209Z" fill="white"/>
</svg>
